{
  "images" : [
    {
      "idiom" : "iphone",
      "scale" : "1x",
      "filename" : "Dawn-320x480.png"
    },
    {
      "idiom" : "iphone",
      "scale" : "2x",
      "filename" : "Dawn-640x960.png"
    },
    {
      "idiom" : "iphone",
      "filename" : "Dawn-640x1136.png",
      "subtype" : "retina4",
      "scale" : "2x"
    }
  ],
  "info" : {
    "version" : 1,
    "author" : "xcode"
  }
}